{
    "photosets": {
        "page": 2,
        "pages": 2,
        "perpage": 300,
        "total": 329,
        "photoset": [
            {
                "id": "72157651149458138",
                "owner": "34938526@N02",
                "username": "newagefanlee",
                "primary": "16901200376",
                "secret": "672baccbdd",
                "server": "7652",
                "farm": 8,
                "count_views": "972",
                "count_comments": "0",
                "count_photos": 16,
                "count_videos": 0,
                "title": {
                    "_content": "Sigma 24-70mm"
                },
                "description": {
                    "_content": ""
                },
                "can_comment": 1,
                "date_create": "1427294713",
                "date_update": "1620396716",
                "photos": 16,
                "videos": 0,
                "visibility_can_see_set": 1,
                "needs_interstitial": 0
            },
            {
                "id": "72157651564054795",
                "owner": "34938526@N02",
                "username": "newagefanlee",
                "primary": "16926762075",
                "secret": "c22d5eb197",
                "server": "8721",
                "farm": 9,
                "count_views": "4773",
                "count_comments": "0",
                "count_photos": 613,
                "count_videos": 0,
                "title": {
                    "_content": "Sony FE 55mm f1.8"
                },
                "description": {
                    "_content": ""
                },
                "can_comment": 1,
                "date_create": "1427292022",
                "date_update": "1620396716",
                "photos": 613,
                "videos": 0,
                "visibility_can_see_set": 1,
                "needs_interstitial": 0
            },
            {
                "id": "72157651561740136",
                "owner": "34938526@N02",
                "username": "newagefanlee",
                "primary": "16341979494",
                "secret": "e347218678",
                "server": "8696",
                "farm": 9,
                "count_views": "106",
                "count_comments": "0",
                "count_photos": 5,
                "count_videos": 0,
                "title": {
                    "_content": "Sony FE 35mm f2.8"
                },
                "description": {
                    "_content": ""
                },
                "can_comment": 1,
                "date_create": "1427622001",
                "date_update": "1620396716",
                "photos": 5,
                "videos": 0,
                "visibility_can_see_set": 1,
                "needs_interstitial": 0
            },
            {
                "id": "72157649560344394",
                "owner": "34938526@N02",
                "username": "newagefanlee",
                "primary": "16923431999",
                "secret": "81f33c2ed0",
                "server": "7613",
                "farm": 8,
                "count_views": "590",
                "count_comments": "0",
                "count_photos": 22,
                "count_videos": 0,
                "title": {
                    "_content": "OM-4"
                },
                "description": {
                    "_content": ""
                },
                "can_comment": 1,
                "date_create": "1428763963",
                "date_update": "1620396716",
                "photos": 22,
                "videos": 0,
                "visibility_can_see_set": 1,
                "needs_interstitial": 0
            },
            {
                "id": "72157651148680858",
                "owner": "34938526@N02",
                "username": "newagefanlee",
                "primary": "16739014858",
                "secret": "b8a44e3850",
                "server": "8733",
                "farm": 9,
                "count_views": "2787",
                "count_comments": "0",
                "count_photos": 161,
                "count_videos": 0,
                "title": {
                    "_content": "OM 85mm f2"
                },
                "description": {
                    "_content": ""
                },
                "can_comment": 1,
                "date_create": "1427291473",
                "date_update": "1620396716",
                "photos": 161,
                "videos": 0,
                "visibility_can_see_set": 1,
                "needs_interstitial": 0
            },
            {
                "id": "72157651550849361",
                "owner": "34938526@N02",
                "username": "newagefanlee",
                "primary": "16926662435",
                "secret": "92a0b97006",
                "server": "8713",
                "farm": 9,
                "count_views": "1225",
                "count_comments": "0",
                "count_photos": 66,
                "count_videos": 0,
                "title": {
                    "_content": "OM 35mm f2"
                },
                "description": {
                    "_content": ""
                },
                "can_comment": 1,
                "date_create": "1427291273",
                "date_update": "1620396716",
                "photos": 66,
                "videos": 0,
                "visibility_can_see_set": 1,
                "needs_interstitial": 0
            },
            {
                "id": "72157651620109011",
                "owner": "34938526@N02",
                "username": "newagefanlee",
                "primary": "16341525784",
                "secret": "4f126d65c8",
                "server": "8747",
                "farm": 9,
                "count_views": "1565",
                "count_comments": "0",
                "count_photos": 142,
                "count_videos": 0,
                "title": {
                    "_content": "OM 50mm f1.8"
                },
                "description": {
                    "_content": ""
                },
                "can_comment": 1,
                "date_create": "1427617929",
                "date_update": "1620396716",
                "photos": 142,
                "videos": 0,
                "visibility_can_see_set": 1,
                "needs_interstitial": 0
            },
            {
                "id": "72157649302746153",
                "owner": "34938526@N02",
                "username": "newagefanlee",
                "primary": "16343766303",
                "secret": "445e523d56",
                "server": "7284",
                "farm": 8,
                "count_views": "908",
                "count_comments": "0",
                "count_photos": 30,
                "count_videos": 0,
                "title": {
                    "_content": "OM 24mm f2.8"
                },
                "description": {
                    "_content": ""
                },
                "can_comment": 1,
                "date_create": "1427617737",
                "date_update": "1620396716",
                "photos": 30,
                "videos": 0,
                "visibility_can_see_set": 1,
                "needs_interstitial": 0
            },
            {
                "id": "72157651564180735",
                "owner": "34938526@N02",
                "username": "newagefanlee",
                "primary": "16925831641",
                "secret": "54305e4c8c",
                "server": "7636",
                "farm": 8,
                "count_views": "257",
                "count_comments": "0",
                "count_photos": 55,
                "count_videos": 0,
                "title": {
                    "_content": "Voigtlander 17.5mm f0.95"
                },
                "description": {
                    "_content": ""
                },
                "can_comment": 1,
                "date_create": "1427292547",
                "date_update": "1620396716",
                "photos": 55,
                "videos": 0,
                "visibility_can_see_set": 1,
                "needs_interstitial": 0
            },
            {
                "id": "72157651800117552",
                "owner": "34938526@N02",
                "username": "newagefanlee",
                "primary": "16443783064",
                "secret": "1439a81134",
                "server": "8777",
                "farm": 9,
                "count_views": "2278",
                "count_comments": "0",
                "count_photos": 85,
                "count_videos": 0,
                "title": {
                    "_content": "Panasonic 20mm f1.7"
                },
                "description": {
                    "_content": ""
                },
                "can_comment": 1,
                "date_create": "1428411729",
                "date_update": "1620396716",
                "photos": 85,
                "videos": 0,
                "visibility_can_see_set": 1,
                "needs_interstitial": 0
            },
            {
                "id": "72157658635918094",
                "owner": "34938526@N02",
                "username": "newagefanlee",
                "primary": "22883532911",
                "secret": "c6872f787f",
                "server": "5816",
                "farm": 6,
                "count_views": "3459",
                "count_comments": "0",
                "count_photos": 53,
                "count_videos": 0,
                "title": {
                    "_content": "Mzd 25mm f\/1.8"
                },
                "description": {
                    "_content": ""
                },
                "can_comment": 1,
                "date_create": "1446991593",
                "date_update": "1620396716",
                "photos": 53,
                "videos": 0,
                "visibility_can_see_set": 1,
                "needs_interstitial": 0
            },
            {
                "id": "72157651415186359",
                "owner": "34938526@N02",
                "username": "newagefanlee",
                "primary": "16889165278",
                "secret": "04c5ee5712",
                "server": "7683",
                "farm": 8,
                "count_views": "1960",
                "count_comments": "0",
                "count_photos": 64,
                "count_videos": 0,
                "title": {
                    "_content": "Panasonic 25mm f1.4"
                },
                "description": {
                    "_content": ""
                },
                "can_comment": 1,
                "date_create": "1428494352",
                "date_update": "1620396716",
                "photos": 64,
                "videos": 0,
                "visibility_can_see_set": 1,
                "needs_interstitial": 0
            },
            {
                "id": "72157652044158961",
                "owner": "34938526@N02",
                "username": "newagefanlee",
                "primary": "16574818174",
                "secret": "8382996a46",
                "server": "8808",
                "farm": 9,
                "count_views": "1226",
                "count_comments": "0",
                "count_photos": 7,
                "count_videos": 0,
                "title": {
                    "_content": "Voigtlader 42.5 mm f0.95"
                },
                "description": {
                    "_content": ""
                },
                "can_comment": 1,
                "date_create": "1429437357",
                "date_update": "1620396716",
                "photos": 7,
                "videos": 0,
                "visibility_can_see_set": 1,
                "needs_interstitial": 0
            },
            {
                "id": "72157651800117572",
                "owner": "34938526@N02",
                "username": "newagefanlee",
                "primary": "16858835327",
                "secret": "139acb54b5",
                "server": "7710",
                "farm": 8,
                "count_views": "1637",
                "count_comments": "0",
                "count_photos": 75,
                "count_videos": 0,
                "title": {
                    "_content": "Olympus 45mm f1.8"
                },
                "description": {
                    "_content": ""
                },
                "can_comment": 1,
                "date_create": "1428411729",
                "date_update": "1620396716",
                "photos": 75,
                "videos": 0,
                "visibility_can_see_set": 1,
                "needs_interstitial": 0
            },
            {
                "id": "72157651127481970",
                "owner": "34938526@N02",
                "username": "newagefanlee",
                "primary": "16915878782",
                "secret": "b4efc4edfd",
                "server": "7648",
                "farm": 8,
                "count_views": "460",
                "count_comments": "0",
                "count_photos": 295,
                "count_videos": 0,
                "title": {
                    "_content": "panasonic 7-14mm"
                },
                "description": {
                    "_content": ""
                },
                "can_comment": 1,
                "date_create": "1427209569",
                "date_update": "1620396716",
                "photos": 295,
                "videos": 0,
                "visibility_can_see_set": 1,
                "needs_interstitial": 0
            },
            {
                "id": "72157651858826969",
                "owner": "34938526@N02",
                "username": "newagefanlee",
                "primary": "17322359245",
                "secret": "9e7a3608d4",
                "server": "8884",
                "farm": 9,
                "count_views": "441",
                "count_comments": "0",
                "count_photos": 1,
                "count_videos": 0,
                "title": {
                    "_content": "Olympus 14-42mm"
                },
                "description": {
                    "_content": ""
                },
                "can_comment": 1,
                "date_create": "1430405881",
                "date_update": "1620396716",
                "photos": 1,
                "videos": 0,
                "visibility_can_see_set": 1,
                "needs_interstitial": 0
            },
            {
                "id": "72157649903799294",
                "owner": "34938526@N02",
                "username": "newagefanlee",
                "primary": "17113029538",
                "secret": "98e05d7671",
                "server": "7725",
                "farm": 8,
                "count_views": "767",
                "count_comments": "0",
                "count_photos": 16,
                "count_videos": 0,
                "title": {
                    "_content": "Olympus 14-150mm"
                },
                "description": {
                    "_content": ""
                },
                "can_comment": 1,
                "date_create": "1430231232",
                "date_update": "1620396716",
                "photos": 16,
                "videos": 0,
                "visibility_can_see_set": 1,
                "needs_interstitial": 0
            },
            {
                "id": "72157651942545982",
                "owner": "34938526@N02",
                "username": "newagefanlee",
                "primary": "16522531774",
                "secret": "497c08aa75",
                "server": "7633",
                "farm": 8,
                "count_views": "11257",
                "count_comments": "0",
                "count_photos": 52,
                "count_videos": 0,
                "title": {
                    "_content": "Olympus 9-18mm"
                },
                "description": {
                    "_content": ""
                },
                "can_comment": 1,
                "date_create": "1429009178",
                "date_update": "1620396716",
                "photos": 52,
                "videos": 0,
                "visibility_can_see_set": 1,
                "needs_interstitial": 0
            },
            {
                "id": "72157649206566634",
                "owner": "34938526@N02",
                "username": "newagefanlee",
                "primary": "16294879974",
                "secret": "2e491efaa0",
                "server": "8707",
                "farm": 9,
                "count_views": "336",
                "count_comments": "0",
                "count_photos": 114,
                "count_videos": 0,
                "title": {
                    "_content": "panasonic 12-35mm"
                },
                "description": {
                    "_content": ""
                },
                "can_comment": 1,
                "date_create": "1427210248",
                "date_update": "1620396716",
                "photos": 114,
                "videos": 0,
                "visibility_can_see_set": 1,
                "needs_interstitial": 0
            },
            {
                "id": "72157651241693278",
                "owner": "34938526@N02",
                "username": "newagefanlee",
                "primary": "16975628452",
                "secret": "8774e8b7b3",
                "server": "8724",
                "farm": 9,
                "count_views": "486",
                "count_comments": "0",
                "count_photos": 111,
                "count_videos": 0,
                "title": {
                    "_content": "Olympus 12-50mm"
                },
                "description": {
                    "_content": ""
                },
                "can_comment": 1,
                "date_create": "1427711468",
                "date_update": "1620396716",
                "photos": 111,
                "videos": 0,
                "visibility_can_see_set": 1,
                "needs_interstitial": 0
            },
            {
                "id": "72157651546340005",
                "owner": "34938526@N02",
                "username": "newagefanlee",
                "primary": "16917232455",
                "secret": "efc45da661",
                "server": "7606",
                "farm": 8,
                "count_views": "226",
                "count_comments": "0",
                "count_photos": 88,
                "count_videos": 0,
                "title": {
                    "_content": "panasonic 100-300mm"
                },
                "description": {
                    "_content": ""
                },
                "can_comment": 1,
                "date_create": "1427210012",
                "date_update": "1620396716",
                "photos": 88,
                "videos": 0,
                "visibility_can_see_set": 1,
                "needs_interstitial": 0
            },
            {
                "id": "72157651483201078",
                "owner": "34938526@N02",
                "username": "newagefanlee",
                "primary": "16901236197",
                "secret": "cfc2200680",
                "server": "8735",
                "farm": 9,
                "count_views": "108",
                "count_comments": "0",
                "count_photos": 8,
                "count_videos": 0,
                "title": {
                    "_content": "Olympus 8mm f3.5"
                },
                "description": {
                    "_content": ""
                },
                "can_comment": 1,
                "date_create": "1428757061",
                "date_update": "1620396716",
                "photos": 8,
                "videos": 0,
                "visibility_can_see_set": 1,
                "needs_interstitial": 0
            },
            {
                "id": "72157651682359880",
                "owner": "34938526@N02",
                "username": "newagefanlee",
                "primary": "17196249096",
                "secret": "24016fffba",
                "server": "8747",
                "farm": 9,
                "count_views": "129",
                "count_comments": "0",
                "count_photos": 9,
                "count_videos": 0,
                "title": {
                    "_content": "Olympus 50mm f2"
                },
                "description": {
                    "_content": ""
                },
                "can_comment": 1,
                "date_create": "1429613859",
                "date_update": "1620396716",
                "photos": 9,
                "videos": 0,
                "visibility_can_see_set": 1,
                "needs_interstitial": 0
            },
            {
                "id": "72157652735064412",
                "owner": "34938526@N02",
                "username": "newagefanlee",
                "primary": "17602394075",
                "secret": "d37ebe565a",
                "server": "8701",
                "farm": 9,
                "count_views": "162",
                "count_comments": "0",
                "count_photos": 12,
                "count_videos": 0,
                "title": {
                    "_content": "Olympus ZD 7-14mm"
                },
                "description": {
                    "_content": ""
                },
                "can_comment": 1,
                "date_create": "1431528287",
                "date_update": "1620396716",
                "photos": 12,
                "videos": 0,
                "visibility_can_see_set": 1,
                "needs_interstitial": 0
            },
            {
                "id": "72157651098567797",
                "owner": "34938526@N02",
                "username": "newagefanlee",
                "primary": "16926737735",
                "secret": "835786c05a",
                "server": "7624",
                "farm": 8,
                "count_views": "2348",
                "count_comments": "0",
                "count_photos": 215,
                "count_videos": 0,
                "title": {
                    "_content": "Olympus ZD 12-60mm"
                },
                "description": {
                    "_content": ""
                },
                "can_comment": 1,
                "date_create": "1427291834",
                "date_update": "1620396716",
                "photos": 215,
                "videos": 0,
                "visibility_can_see_set": 1,
                "needs_interstitial": 0
            },
            {
                "id": "72157651776899861",
                "owner": "34938526@N02",
                "username": "newagefanlee",
                "primary": "16427349474",
                "secret": "ed75defa90",
                "server": "8809",
                "farm": 9,
                "count_views": "475",
                "count_comments": "0",
                "count_photos": 94,
                "count_videos": 0,
                "title": {
                    "_content": "Olympus 14-54mm"
                },
                "description": {
                    "_content": ""
                },
                "can_comment": 1,
                "date_create": "1428290940",
                "date_update": "1620396716",
                "photos": 94,
                "videos": 0,
                "visibility_can_see_set": 1,
                "needs_interstitial": 0
            },
            {
                "id": "72157653580445806",
                "owner": "34938526@N02",
                "username": "newagefanlee",
                "primary": "18202964096",
                "secret": "b6cea59e4d",
                "server": "7774",
                "farm": 8,
                "count_views": "1244",
                "count_comments": "0",
                "count_photos": 40,
                "count_videos": 0,
                "title": {
                    "_content": "Olympus ZD 14-35mm"
                },
                "description": {
                    "_content": ""
                },
                "can_comment": 1,
                "date_create": "1432901220",
                "date_update": "1620396716",
                "photos": 40,
                "videos": 0,
                "visibility_can_see_set": 1,
                "needs_interstitial": 0
            },
            {
                "id": "72157652107173490",
                "owner": "34938526@N02",
                "username": "newagefanlee",
                "primary": "17452190871",
                "secret": "ba2ca983d3",
                "server": "5323",
                "farm": 6,
                "count_views": "1477",
                "count_comments": "0",
                "count_photos": 21,
                "count_videos": 0,
                "title": {
                    "_content": "Olympus ZD 35-100mm"
                },
                "description": {
                    "_content": ""
                },
                "can_comment": 1,
                "date_create": "1431175789",
                "date_update": "1620396717",
                "photos": 21,
                "videos": 0,
                "visibility_can_see_set": 1,
                "needs_interstitial": 0
            },
            {
                "id": "72157651140607329",
                "owner": "34938526@N02",
                "username": "newagefanlee",
                "primary": "16719702817",
                "secret": "9b96de79f3",
                "server": "7626",
                "farm": 8,
                "count_views": "456",
                "count_comments": "0",
                "count_photos": 64,
                "count_videos": 0,
                "title": {
                    "_content": "Olympus ZD 50-200mm"
                },
                "description": {
                    "_content": ""
                },
                "can_comment": 1,
                "date_create": "1427294073",
                "date_update": "1620396717",
                "photos": 64,
                "videos": 0,
                "visibility_can_see_set": 1,
                "needs_interstitial": 0
            }
        ]
    },
    "stat": "ok"
}
