{
    "photos": {
        "page": 2,
        "pages": 2,
        "perpage": 500,
        "total": 507,
        "photo": [
            {
                "id": "51864293068",
                "owner": "73115043@N07",
                "secret": "93d64c99d1",
                "server": "65535",
                "farm": 66,
                "title": "Waiting on you",
                "ispublic": 1,
                "isfriend": 0,
                "isfamily": 0
            },
            {
                "id": "51864863060",
                "owner": "73115043@N07",
                "secret": "e31e10dfba",
                "server": "65535",
                "farm": 66,
                "title": "Proud",
                "ispublic": 1,
                "isfriend": 0,
                "isfamily": 0
            },
            {
                "id": "51848448776",
                "owner": "73115043@N07",
                "secret": "a0fd6b2b83",
                "server": "65535",
                "farm": 66,
                "title": "judy-oday",
                "ispublic": 1,
                "isfriend": 0,
                "isfamily": 0
            },
            {
                "id": "51848770059",
                "owner": "73115043@N07",
                "secret": "f89ddb468d",
                "server": "65535",
                "farm": 66,
                "title": "Face down",
                "ispublic": 1,
                "isfriend": 0,
                "isfamily": 0
            },
            {
                "id": "51848752574",
                "owner": "73115043@N07",
                "secret": "4aebd0d554",
                "server": "65535",
                "farm": 66,
                "title": "judy-oday",
                "ispublic": 1,
                "isfriend": 0,
                "isfamily": 0
            },
            {
                "id": "51830918363",
                "owner": "73115043@N07",
                "secret": "2c4597dd86",
                "server": "65535",
                "farm": 66,
                "title": "Naked",
                "ispublic": 1,
                "isfriend": 0,
                "isfamily": 0
            },
            {
                "id": "51804616591",
                "owner": "73115043@N07",
                "secret": "78731de935",
                "server": "65535",
                "farm": 66,
                "title": "Nude",
                "ispublic": 1,
                "isfriend": 0,
                "isfamily": 0
            }
        ]
    },
    "stat": "ok"
}
